LOCAIS
Local1,25
Local2,30
Local3,15
Local4,20
Local5,20
Local6,35
Local7,20
Local8,15
Local9,30
Local10,10
Local11,30
CAMINHOS
Local1,Local2,25
Local1,Local3,20
Local1,Local4,25
Local2,Local6,30
Local2,Local8,35
Local4,Local5,15
Local4,Local9,20
Local5,Local7,30
Local5,Local6,15
Local8,Local10,5
Local6,Local10,10
Local9,Local11,20
Local11,Local7,5